"Manufacturer","Model","Type","Min.Price","Price","Max.Price","MPG.city","MPG.highway","AirBags","Cylinders","EngineSize","Horsepower","Length","Width","Weight","Origin"
"1","Acura","Integra","Small",12.9,15.9,18.8,25,31,"None","4",1.8,140,177,68,2705,"non-USA"
"2","Acura","Legend","Midsize",29.2,33.9,38.7,18,25,"Driver & Passenger","6",3.2,200,195,71,3560,"non-USA"
"3","Audi","90","Compact",25.9,29.1,32.3,20,26,"Driver only","6",2.8,172,180,67,3375,"non-USA"
"4","Audi","100","Midsize",30.8,37.7,44.6,19,26,"Driver & Passenger","6",2.8,172,193,70,3405,"non-USA"
"5","BMW","535i","Midsize",23.7,30,36.2,22,30,"Driver only","4",3.5,208,186,69,3640,"non-USA"
"6","Buick","Century","Midsize",14.2,15.7,17.3,22,31,"Driver only","4",2.2,110,189,69,2880,"USA"
"7","Buick","LeSabre","Large",19.9,20.8,21.7,19,28,"Driver only","6",3.8,170,200,74,3470,"USA"
"8","Buick","Roadmaster","Large",22.6,23.7,24.9,16,25,"Driver only","6",5.7,180,216,78,4105,"USA"
"9","Buick","Riviera","Midsize",26.3,26.3,26.3,19,27,"Driver only","6",3.8,170,198,73,3495,"USA"
"10","Cadillac","DeVille","Large",33,34.7,36.3,16,25,"Driver only","8",4.9,200,206,73,3620,"USA"
"11","Cadillac","Seville","Midsize",37.5,40.1,42.7,16,25,"Driver & Passenger","8",4.6,295,204,74,3935,"USA"
"12","Chevrolet","Cavalier","Compact",8.5,13.4,18.3,25,36,"None","4",2.2,110,182,66,2490,"USA"
"13","Chevrolet","Corsica","Compact",11.4,11.4,11.4,25,34,"Driver only","4",2.2,110,184,68,2785,"USA"
"14","Chevrolet","Camaro","Sporty",13.4,15.1,16.8,19,28,"Driver & Passenger","6",3.4,160,193,74,3240,"USA"
"15","Chevrolet","Lumina","Midsize",13.4,15.9,18.4,21,29,"None","4",2.2,110,198,71,3195,"USA"
"16","Chevrolet","Lumina_APV","Van",14.7,16.3,18,18,23,"None","6",3.8,170,178,74,3715,"USA"
"17","Chevrolet","Astro","Van",14.7,16.6,18.6,15,20,"None","6",4.3,165,194,78,4025,"USA"
"18","Chevrolet","Caprice","Large",18,18.8,19.6,17,26,"Driver only","8",5,170,214,77,3910,"USA"
"19","Chevrolet","Corvette","Sporty",34.6,38,41.5,17,25,"Driver only","8",5.7,300,179,74,3380,"USA"
"20","Chrylser","Concorde","Large",18.4,18.4,18.4,20,28,"Driver & Passenger","6",3.3,153,203,74,3515,"USA"
"21","Chrysler","LeBaron","Compact",14.5,15.8,17.1,23,28,"Driver & Passenger","4",3,141,183,68,3085,"USA"
"22","Chrysler","Imperial","Large",29.5,29.5,29.5,20,26,"Driver only","6",3.3,147,203,69,3570,"USA"
"23","Dodge","Colt","Small",7.9,9.2,10.6,29,33,"None","4",1.5,92,174,66,2270,"USA"
"24","Dodge","Shadow","Small",8.4,11.3,14.2,23,29,"Driver only","4",2.2,93,172,67,2670,"USA"
"25","Dodge","Spirit","Compact",11.9,13.3,14.7,22,27,"Driver only","4",2.5,100,181,68,2970,"USA"
"26","Dodge","Caravan","Van",13.6,19,24.4,17,21,"Driver only","6",3,142,175,72,3705,"USA"
"27","Dodge","Dynasty","Midsize",14.8,15.6,16.4,21,27,"Driver only","4",2.5,100,192,69,3080,"USA"
"28","Dodge","Stealth","Sporty",18.5,25.8,33.1,18,24,"Driver only","6",3,300,180,72,3805,"USA"
"29","Eagle","Summit","Small",7.9,12.2,16.5,29,33,"None","4",1.5,92,174,66,2295,"USA"
"30","Eagle","Vision","Large",17.5,19.3,21.2,20,28,"Driver & Passenger","6",3.5,214,202,74,3490,"USA"
"31","Ford","Festiva","Small",6.9,7.4,7.9,31,33,"None","4",1.3,63,141,63,1845,"USA"
"32","Ford","Escort","Small",8.4,10.1,11.9,23,30,"None","4",1.8,127,171,67,2530,"USA"
"33","Ford","Tempo","Compact",10.4,11.3,12.2,22,27,"None","4",2.3,96,177,68,2690,"USA"
"34","Ford","Mustang","Sporty",10.8,15.9,21,22,29,"Driver only","4",2.3,105,180,68,2850,"USA"
"35","Ford","Probe","Sporty",12.8,14,15.2,24,30,"Driver only","4",2,115,179,70,2710,"USA"
"36","Ford","Aerostar","Van",14.5,19.9,25.3,15,20,"Driver only","6",3,145,176,72,3735,"USA"
"37","Ford","Taurus","Midsize",15.6,20.2,24.8,21,30,"Driver only","6",3,140,192,71,3325,"USA"
"38","Ford","Crown_Victoria","Large",20.1,20.9,21.7,18,26,"Driver only","8",4.6,190,212,78,3950,"USA"
"39","Geo","Metro","Small",6.7,8.4,10,46,50,"None","3",1,55,151,63,1695,"non-USA"
"40","Geo","Storm","Sporty",11.5,12.5,13.5,30,36,"Driver only","4",1.6,90,164,67,2475,"non-USA"
"41","Honda","Prelude","Sporty",17,19.8,22.7,24,31,"Driver & Passenger","4",2.3,160,175,70,2865,"non-USA"
"42","Honda","Civic","Small",8.4,12.1,15.8,42,46,"Driver only","4",1.5,102,173,67,2350,"non-USA"
"43","Honda","Accord","Compact",13.8,17.5,21.2,24,31,"Driver & Passenger","4",2.2,140,185,67,3040,"non-USA"
"44","Hyundai","Excel","Small",6.8,8,9.2,29,33,"None","4",1.5,81,168,63,2345,"non-USA"
"45","Hyundai","Elantra","Small",9,10,11,22,29,"None","4",1.8,124,172,66,2620,"non-USA"
"46","Hyundai","Scoupe","Sporty",9.1,10,11,26,34,"None","4",1.5,92,166,64,2285,"non-USA"
"47","Hyundai","Sonata","Midsize",12.4,13.9,15.3,20,27,"None","4",2,128,184,69,2885,"non-USA"
"48","Infiniti","Q45","Midsize",45.4,47.9,50.4,17,22,"Driver only","8",4.5,278,200,72,4000,"non-USA"
"49","Lexus","ES300","Midsize",27.5,28,28.4,18,24,"Driver only","6",3,185,188,70,3510,"non-USA"
"50","Lexus","SC300","Midsize",34.7,35.2,35.6,18,23,"Driver & Passenger","6",3,225,191,71,3515,"non-USA"
"51","Lincoln","Continental","Midsize",33.3,34.3,35.3,17,26,"Driver & Passenger","6",3.8,160,205,73,3695,"USA"
"52","Lincoln","Town_Car","Large",34.4,36.1,37.8,18,26,"Driver & Passenger","8",4.6,210,219,77,4055,"USA"
"53","Mazda","323","Small",7.4,8.3,9.1,29,37,"None","4",1.6,82,164,66,2325,"non-USA"
"54","Mazda","Protege","Small",10.9,11.6,12.3,28,36,"None","4",1.8,103,172,66,2440,"non-USA"
"55","Mazda","626","Compact",14.3,16.5,18.7,26,34,"Driver only","4",2.5,164,184,69,2970,"non-USA"
"56","Mazda","MPV","Van",16.6,19.1,21.7,18,24,"None","6",3,155,190,72,3735,"non-USA"
"57","Mazda","RX-7","Sporty",32.5,32.5,32.5,17,25,"Driver only","rotary",1.3,255,169,69,2895,"non-USA"
"58","Mercedes-Benz","190E","Compact",29,31.9,34.9,20,29,"Driver only","4",2.3,130,175,67,2920,"non-USA"
"59","Mercedes-Benz","300E","Midsize",43.8,61.9,80,19,25,"Driver & Passenger","6",3.2,217,187,69,3525,"non-USA"
"60","Mercury","Capri","Sporty",13.3,14.1,15,23,26,"Driver only","4",1.6,100,166,65,2450,"USA"
"61","Mercury","Cougar","Midsize",14.9,14.9,14.9,19,26,"None","6",3.8,140,199,73,3610,"USA"
"62","Mitsubishi","Mirage","Small",7.7,10.3,12.9,29,33,"None","4",1.5,92,172,67,2295,"non-USA"
"63","Mitsubishi","Diamante","Midsize",22.4,26.1,29.9,18,24,"Driver only","6",3,202,190,70,3730,"non-USA"
"64","Nissan","Sentra","Small",8.7,11.8,14.9,29,33,"Driver only","4",1.6,110,170,66,2545,"non-USA"
"65","Nissan","Altima","Compact",13,15.7,18.3,24,30,"Driver only","4",2.4,150,181,67,3050,"non-USA"
"66","Nissan","Quest","Van",16.7,19.1,21.5,17,23,"None","6",3,151,190,74,4100,"non-USA"
"67","Nissan","Maxima","Midsize",21,21.5,22,21,26,"Driver only","6",3,160,188,69,3200,"non-USA"
"68","Oldsmobile","Achieva","Compact",13,13.5,14,24,31,"None","4",2.3,155,188,67,2910,"USA"
"69","Oldsmobile","Cutlass_Ciera","Midsize",14.2,16.3,18.4,23,31,"Driver only","4",2.2,110,190,70,2890,"USA"
"70","Oldsmobile","Silhouette","Van",19.5,19.5,19.5,18,23,"None","6",3.8,170,194,74,3715,"USA"
"71","Oldsmobile","Eighty-Eight","Large",19.5,20.7,21.9,19,28,"Driver only","6",3.8,170,201,74,3470,"USA"
"72","Plymouth","Laser","Sporty",11.4,14.4,17.4,23,30,"None","4",1.8,92,173,67,2640,"USA"
"73","Pontiac","LeMans","Small",8.2,9,9.9,31,41,"None","4",1.6,74,177,66,2350,"USA"
"74","Pontiac","Sunbird","Compact",9.4,11.1,12.8,23,31,"None","4",2,110,181,66,2575,"USA"
"75","Pontiac","Firebird","Sporty",14,17.7,21.4,19,28,"Driver & Passenger","6",3.4,160,196,75,3240,"USA"
"76","Pontiac","Grand_Prix","Midsize",15.4,18.5,21.6,19,27,"None","6",3.4,200,195,72,3450,"USA"
"77","Pontiac","Bonneville","Large",19.4,24.4,29.4,19,28,"Driver & Passenger","6",3.8,170,177,74,3495,"USA"
"78","Saab","900","Compact",20.3,28.7,37.1,20,26,"Driver only","4",2.1,140,184,67,2775,"non-USA"
"79","Saturn","SL","Small",9.2,11.1,12.9,28,38,"Driver only","4",1.9,85,176,68,2495,"USA"
"80","Subaru","Justy","Small",7.3,8.4,9.5,33,37,"None","3",1.2,73,146,60,2045,"non-USA"
"81","Subaru","Loyale","Small",10.5,10.9,11.3,25,30,"None","4",1.8,90,175,65,2490,"non-USA"
"82","Subaru","Legacy","Compact",16.3,19.5,22.7,23,30,"Driver only","4",2.2,130,179,67,3085,"non-USA"
"83","Suzuki","Swift","Small",7.3,8.6,10,39,43,"None","3",1.3,70,161,63,1965,"non-USA"
"84","Toyota","Tercel","Small",7.8,9.8,11.8,32,37,"Driver only","4",1.5,82,162,65,2055,"non-USA"
"85","Toyota","Celica","Sporty",14.2,18.4,22.6,25,32,"Driver only","4",2.2,135,174,69,2950,"non-USA"
"86","Toyota","Camry","Midsize",15.2,18.2,21.2,22,29,"Driver only","4",2.2,130,188,70,3030,"non-USA"
"87","Toyota","Previa","Van",18.9,22.7,26.6,18,22,"Driver only","4",2.4,138,187,71,3785,"non-USA"
"88","Volkswagen","Fox","Small",8.7,9.1,9.5,25,33,"None","4",1.8,81,163,63,2240,"non-USA"
"89","Volkswagen","Eurovan","Van",16.6,19.7,22.7,17,21,"None","5",2.5,109,187,72,3960,"non-USA"
"90","Volkswagen","Passat","Compact",17.6,20,22.4,21,30,"None","4",2,134,180,67,2985,"non-USA"
"91","Volkswagen","Corrado","Sporty",22.9,23.3,23.7,18,25,"None","6",2.8,178,159,66,2810,"non-USA"
"92","Volvo","240","Compact",21.8,22.7,23.5,21,28,"Driver only","4",2.3,114,190,67,2985,"non-USA"
"93","Volvo","850","Midsize",24.8,26.7,28.5,20,28,"Driver & Passenger","5",2.4,168,184,69,3245,"non-USA"
